\relax 
\providecommand\hyper@newdestlabel[2]{}
\providecommand\HyperFirstAtBeginDocument{\AtBeginDocument}
\HyperFirstAtBeginDocument{\ifx\hyper@anchor\@undefined
\global\let\oldcontentsline\contentsline
\gdef\contentsline#1#2#3#4{\oldcontentsline{#1}{#2}{#3}}
\global\let\oldnewlabel\newlabel
\gdef\newlabel#1#2{\newlabelxx{#1}#2}
\gdef\newlabelxx#1#2#3#4#5#6{\oldnewlabel{#1}{{#2}{#3}}}
\AtEndDocument{\ifx\hyper@anchor\@undefined
\let\contentsline\oldcontentsline
\let\newlabel\oldnewlabel
\fi}
\fi}
\global\let\hyper@last\relax 
\gdef\HyperFirstAtBeginDocument#1{#1}
\providecommand\HyField@AuxAddToFields[1]{}
\providecommand\HyField@AuxAddToCoFields[2]{}
\providecommand \oddpage@label [2]{}
\@writefile{toc}{\contentsline {chapter}{\numberline {1}Hierarchical Index}{1}{chapter.1}}
\@writefile{lof}{\addvspace {10\p@ }}
\@writefile{lot}{\addvspace {10\p@ }}
\@writefile{toc}{\contentsline {section}{\numberline {1.1}Class Hierarchy}{1}{section.1.1}}
\@writefile{toc}{\contentsline {chapter}{\numberline {2}Class Index}{3}{chapter.2}}
\@writefile{lof}{\addvspace {10\p@ }}
\@writefile{lot}{\addvspace {10\p@ }}
\@writefile{toc}{\contentsline {section}{\numberline {2.1}Class List}{3}{section.2.1}}
\@writefile{toc}{\contentsline {chapter}{\numberline {3}Class Documentation}{5}{chapter.3}}
\@writefile{lof}{\addvspace {10\p@ }}
\@writefile{lot}{\addvspace {10\p@ }}
\@writefile{toc}{\contentsline {section}{\numberline {3.1}parallel\discretionary {\unhbox \voidb@x \hbox {\relax \fontsize  {7}{8}\selectfont  $\leftarrow \joinrel  \rhook $}}{}{}Programierrung.\discretionary {\unhbox \voidb@x \hbox {\relax \fontsize  {7}{8}\selectfont  $\leftarrow \joinrel  \rhook $}}{}{}Aufgabe Enum Reference}{5}{section.3.1}}
\newlabel{enumparallel_programierrung_1_1_aufgabe}{{3.1}{5}{parallel\+Programierrung.\+Aufgabe Enum Reference}{section.3.1}{}}
\@writefile{toc}{\contentsline {subsection}{\numberline {3.1.1}Detailed Description}{5}{subsection.3.1.1}}
\@writefile{toc}{\contentsline {subsection}{\numberline {3.1.2}Member Data Documentation}{5}{subsection.3.1.2}}
\@writefile{toc}{\contentsline {subsubsection}{\numberline {3.1.2.1}echo\discretionary {\unhbox \voidb@x \hbox {\relax \fontsize  {7}{8}\selectfont  $\leftarrow \joinrel  \rhook $}}{}{}Aufgabe1}{5}{subsubsection.3.1.2.1}}
\newlabel{enumparallel_programierrung_1_1_aufgabe_a97992d8f3f1abd5800322cf06c27353a}{{3.1.2.1}{5}{echo\+Aufgabe1}{subsubsection.3.1.2.1}{}}
\@writefile{toc}{\contentsline {subsubsection}{\numberline {3.1.2.2}election\discretionary {\unhbox \voidb@x \hbox {\relax \fontsize  {7}{8}\selectfont  $\leftarrow \joinrel  \rhook $}}{}{}Aufgabe1}{5}{subsubsection.3.1.2.2}}
\newlabel{enumparallel_programierrung_1_1_aufgabe_aafba4c86cd4443a2e39e44944de94e91}{{3.1.2.2}{5}{election\+Aufgabe1}{subsubsection.3.1.2.2}{}}
\@writefile{toc}{\contentsline {subsubsection}{\numberline {3.1.2.3}election\discretionary {\unhbox \voidb@x \hbox {\relax \fontsize  {7}{8}\selectfont  $\leftarrow \joinrel  \rhook $}}{}{}Aufgabe3}{5}{subsubsection.3.1.2.3}}
\newlabel{enumparallel_programierrung_1_1_aufgabe_ae7589971bc49a9067ee4c9e4e92f9b39}{{3.1.2.3}{5}{election\+Aufgabe3}{subsubsection.3.1.2.3}{}}
\@writefile{toc}{\contentsline {section}{\numberline {3.2}parallel\discretionary {\unhbox \voidb@x \hbox {\relax \fontsize  {7}{8}\selectfont  $\leftarrow \joinrel  \rhook $}}{}{}Programierrung.\discretionary {\unhbox \voidb@x \hbox {\relax \fontsize  {7}{8}\selectfont  $\leftarrow \joinrel  \rhook $}}{}{}C\discretionary {\unhbox \voidb@x \hbox {\relax \fontsize  {7}{8}\selectfont  $\leftarrow \joinrel  \rhook $}}{}{}N\discretionary {\unhbox \voidb@x \hbox {\relax \fontsize  {7}{8}\selectfont  $\leftarrow \joinrel  \rhook $}}{}{}S\discretionary {\unhbox \voidb@x \hbox {\relax \fontsize  {7}{8}\selectfont  $\leftarrow \joinrel  \rhook $}}{}{}Server Class Reference}{5}{section.3.2}}
\newlabel{classparallel_programierrung_1_1_c_n_s_server}{{3.2}{5}{parallel\+Programierrung.\+C\+N\+S\+Server Class Reference}{section.3.2}{}}
\@writefile{toc}{\contentsline {subsection}{\numberline {3.2.1}Detailed Description}{6}{subsection.3.2.1}}
\@writefile{toc}{\contentsline {subsection}{\numberline {3.2.2}Constructor \& Destructor Documentation}{6}{subsection.3.2.2}}
\@writefile{toc}{\contentsline {subsubsection}{\numberline {3.2.2.1}C\discretionary {\unhbox \voidb@x \hbox {\relax \fontsize  {7}{8}\selectfont  $\leftarrow \joinrel  \rhook $}}{}{}N\discretionary {\unhbox \voidb@x \hbox {\relax \fontsize  {7}{8}\selectfont  $\leftarrow \joinrel  \rhook $}}{}{}S\discretionary {\unhbox \voidb@x \hbox {\relax \fontsize  {7}{8}\selectfont  $\leftarrow \joinrel  \rhook $}}{}{}Server}{6}{subsubsection.3.2.2.1}}
\newlabel{classparallel_programierrung_1_1_c_n_s_server_a2d0d8a0bd1d8179de71dfb7be8f11d8d}{{3.2.2.1}{6}{C\+N\+S\+Server}{subsubsection.3.2.2.1}{}}
\@writefile{toc}{\contentsline {subsection}{\numberline {3.2.3}Member Function Documentation}{6}{subsection.3.2.3}}
\@writefile{toc}{\contentsline {subsubsection}{\numberline {3.2.3.1}get\discretionary {\unhbox \voidb@x \hbox {\relax \fontsize  {7}{8}\selectfont  $\leftarrow \joinrel  \rhook $}}{}{}Adress}{6}{subsubsection.3.2.3.1}}
\newlabel{classparallel_programierrung_1_1_c_n_s_server_a6b477045889c3f20d84426329907a88a}{{3.2.3.1}{6}{get\+Adress}{subsubsection.3.2.3.1}{}}
\@writefile{toc}{\contentsline {subsubsection}{\numberline {3.2.3.2}run}{6}{subsubsection.3.2.3.2}}
\newlabel{classparallel_programierrung_1_1_c_n_s_server_aad690f8116fa3990ad7fab66ae41de0d}{{3.2.3.2}{6}{run}{subsubsection.3.2.3.2}{}}
\@writefile{toc}{\contentsline {section}{\numberline {3.3}parallel\discretionary {\unhbox \voidb@x \hbox {\relax \fontsize  {7}{8}\selectfont  $\leftarrow \joinrel  \rhook $}}{}{}Programierrung.\discretionary {\unhbox \voidb@x \hbox {\relax \fontsize  {7}{8}\selectfont  $\leftarrow \joinrel  \rhook $}}{}{}Echo2 Class Reference}{6}{section.3.3}}
\newlabel{classparallel_programierrung_1_1_echo2}{{3.3}{6}{parallel\+Programierrung.\+Echo2 Class Reference}{section.3.3}{}}
\gdef \PWST@i{1}
\@writefile{toc}{\contentsline {subsection}{\numberline {3.3.1}Detailed Description}{7}{subsection.3.3.1}}
\@writefile{toc}{\contentsline {subsection}{\numberline {3.3.2}Constructor \& Destructor Documentation}{7}{subsection.3.3.2}}
\@writefile{toc}{\contentsline {subsubsection}{\numberline {3.3.2.1}Echo2}{7}{subsubsection.3.3.2.1}}
\newlabel{classparallel_programierrung_1_1_echo2_a5713ba8a0d9bb7092213ac502cd7f9b2}{{3.3.2.1}{7}{Echo2}{subsubsection.3.3.2.1}{}}
\@writefile{toc}{\contentsline {subsection}{\numberline {3.3.3}Member Function Documentation}{7}{subsection.3.3.3}}
\@writefile{toc}{\contentsline {subsubsection}{\numberline {3.3.3.1}get\discretionary {\unhbox \voidb@x \hbox {\relax \fontsize  {7}{8}\selectfont  $\leftarrow \joinrel  \rhook $}}{}{}State}{7}{subsubsection.3.3.3.1}}
\newlabel{classparallel_programierrung_1_1_echo2_af7b79b3514807bdb7d1f28a149028e48}{{3.3.3.1}{7}{get\+State}{subsubsection.3.3.3.1}{}}
\@writefile{toc}{\contentsline {subsubsection}{\numberline {3.3.3.2}run}{7}{subsubsection.3.3.3.2}}
\newlabel{classparallel_programierrung_1_1_echo2_a7b654cffa3be441bd7c3d6c560a704d2}{{3.3.3.2}{7}{run}{subsubsection.3.3.3.2}{}}
\@writefile{toc}{\contentsline {subsubsection}{\numberline {3.3.3.3}set\discretionary {\unhbox \voidb@x \hbox {\relax \fontsize  {7}{8}\selectfont  $\leftarrow \joinrel  \rhook $}}{}{}State}{7}{subsubsection.3.3.3.3}}
\newlabel{classparallel_programierrung_1_1_echo2_adff79062b535b1f0aa57b89b90eaf2df}{{3.3.3.3}{7}{set\+State}{subsubsection.3.3.3.3}{}}
\gdef \PWST@ii{1}
\@writefile{toc}{\contentsline {subsubsection}{\numberline {3.3.3.4}to\discretionary {\unhbox \voidb@x \hbox {\relax \fontsize  {7}{8}\selectfont  $\leftarrow \joinrel  \rhook $}}{}{}String}{8}{subsubsection.3.3.3.4}}
\newlabel{classparallel_programierrung_1_1_echo2_a352a628a407d3e260021c89706b04432}{{3.3.3.4}{8}{to\+String}{subsubsection.3.3.3.4}{}}
\@writefile{toc}{\contentsline {section}{\numberline {3.4}parallel\discretionary {\unhbox \voidb@x \hbox {\relax \fontsize  {7}{8}\selectfont  $\leftarrow \joinrel  \rhook $}}{}{}Programierrung.\discretionary {\unhbox \voidb@x \hbox {\relax \fontsize  {7}{8}\selectfont  $\leftarrow \joinrel  \rhook $}}{}{}Election\discretionary {\unhbox \voidb@x \hbox {\relax \fontsize  {7}{8}\selectfont  $\leftarrow \joinrel  \rhook $}}{}{}Felix Class Reference}{8}{section.3.4}}
\newlabel{classparallel_programierrung_1_1_election_felix}{{3.4}{8}{parallel\+Programierrung.\+Election\+Felix Class Reference}{section.3.4}{}}
\@writefile{toc}{\contentsline {subsection}{\numberline {3.4.1}Detailed Description}{8}{subsection.3.4.1}}
\@writefile{toc}{\contentsline {subsection}{\numberline {3.4.2}Constructor \& Destructor Documentation}{8}{subsection.3.4.2}}
\@writefile{toc}{\contentsline {subsubsection}{\numberline {3.4.2.1}Election\discretionary {\unhbox \voidb@x \hbox {\relax \fontsize  {7}{8}\selectfont  $\leftarrow \joinrel  \rhook $}}{}{}Felix}{8}{subsubsection.3.4.2.1}}
\newlabel{classparallel_programierrung_1_1_election_felix_a639a6fce191d71047d94dea8fdbe1ab7}{{3.4.2.1}{8}{Election\+Felix}{subsubsection.3.4.2.1}{}}
\gdef \PWST@iii{2}
\gdef \PWST@iv{1}
\@writefile{toc}{\contentsline {subsection}{\numberline {3.4.3}Member Function Documentation}{9}{subsection.3.4.3}}
\@writefile{toc}{\contentsline {subsubsection}{\numberline {3.4.3.1}get\discretionary {\unhbox \voidb@x \hbox {\relax \fontsize  {7}{8}\selectfont  $\leftarrow \joinrel  \rhook $}}{}{}State}{9}{subsubsection.3.4.3.1}}
\newlabel{classparallel_programierrung_1_1_election_felix_aa1de20e13e6bc5347bd5328e0856b8eb}{{3.4.3.1}{9}{get\+State}{subsubsection.3.4.3.1}{}}
\@writefile{toc}{\contentsline {subsubsection}{\numberline {3.4.3.2}run}{9}{subsubsection.3.4.3.2}}
\newlabel{classparallel_programierrung_1_1_election_felix_a8aabb4912ea7671864cdb3693c474932}{{3.4.3.2}{9}{run}{subsubsection.3.4.3.2}{}}
\@writefile{toc}{\contentsline {subsubsection}{\numberline {3.4.3.3}set\discretionary {\unhbox \voidb@x \hbox {\relax \fontsize  {7}{8}\selectfont  $\leftarrow \joinrel  \rhook $}}{}{}State}{9}{subsubsection.3.4.3.3}}
\newlabel{classparallel_programierrung_1_1_election_felix_a782adeab4924db0ee070a248381e2211}{{3.4.3.3}{9}{set\+State}{subsubsection.3.4.3.3}{}}
\@writefile{toc}{\contentsline {subsubsection}{\numberline {3.4.3.4}to\discretionary {\unhbox \voidb@x \hbox {\relax \fontsize  {7}{8}\selectfont  $\leftarrow \joinrel  \rhook $}}{}{}String}{9}{subsubsection.3.4.3.4}}
\newlabel{classparallel_programierrung_1_1_election_felix_a91d8e5619140558914495f471d7eab90}{{3.4.3.4}{9}{to\+String}{subsubsection.3.4.3.4}{}}
\@writefile{toc}{\contentsline {section}{\numberline {3.5}parallel\discretionary {\unhbox \voidb@x \hbox {\relax \fontsize  {7}{8}\selectfont  $\leftarrow \joinrel  \rhook $}}{}{}Programierrung.\discretionary {\unhbox \voidb@x \hbox {\relax \fontsize  {7}{8}\selectfont  $\leftarrow \joinrel  \rhook $}}{}{}Election\discretionary {\unhbox \voidb@x \hbox {\relax \fontsize  {7}{8}\selectfont  $\leftarrow \joinrel  \rhook $}}{}{}State Enum Reference}{9}{section.3.5}}
\newlabel{enumparallel_programierrung_1_1_election_state}{{3.5}{9}{parallel\+Programierrung.\+Election\+State Enum Reference}{section.3.5}{}}
\@writefile{toc}{\contentsline {subsection}{\numberline {3.5.1}Detailed Description}{9}{subsection.3.5.1}}
\@writefile{toc}{\contentsline {subsection}{\numberline {3.5.2}Member Data Documentation}{9}{subsection.3.5.2}}
\@writefile{toc}{\contentsline {subsubsection}{\numberline {3.5.2.1}Election}{9}{subsubsection.3.5.2.1}}
\newlabel{enumparallel_programierrung_1_1_election_state_a85cee2788bf3671033b7e078b962f8da}{{3.5.2.1}{9}{Election}{subsubsection.3.5.2.1}{}}
\@writefile{toc}{\contentsline {subsubsection}{\numberline {3.5.2.2}Graph}{10}{subsubsection.3.5.2.2}}
\newlabel{enumparallel_programierrung_1_1_election_state_a26e7acc407da04f137ef2c85e043d546}{{3.5.2.2}{10}{Graph}{subsubsection.3.5.2.2}{}}
\@writefile{toc}{\contentsline {subsubsection}{\numberline {3.5.2.3}Leader}{10}{subsubsection.3.5.2.3}}
\newlabel{enumparallel_programierrung_1_1_election_state_abcfe060715aad796834e16e32a42c468}{{3.5.2.3}{10}{Leader}{subsubsection.3.5.2.3}{}}
\@writefile{toc}{\contentsline {section}{\numberline {3.6}parallel\discretionary {\unhbox \voidb@x \hbox {\relax \fontsize  {7}{8}\selectfont  $\leftarrow \joinrel  \rhook $}}{}{}Programierrung.\discretionary {\unhbox \voidb@x \hbox {\relax \fontsize  {7}{8}\selectfont  $\leftarrow \joinrel  \rhook $}}{}{}Generated\discretionary {\unhbox \voidb@x \hbox {\relax \fontsize  {7}{8}\selectfont  $\leftarrow \joinrel  \rhook $}}{}{}Graph Class Reference}{10}{section.3.6}}
\newlabel{classparallel_programierrung_1_1_generated_graph}{{3.6}{10}{parallel\+Programierrung.\+Generated\+Graph Class Reference}{section.3.6}{}}
\@writefile{toc}{\contentsline {subsection}{\numberline {3.6.1}Detailed Description}{10}{subsection.3.6.1}}
\@writefile{toc}{\contentsline {subsection}{\numberline {3.6.2}Constructor \& Destructor Documentation}{10}{subsection.3.6.2}}
\@writefile{toc}{\contentsline {subsubsection}{\numberline {3.6.2.1}Generated\discretionary {\unhbox \voidb@x \hbox {\relax \fontsize  {7}{8}\selectfont  $\leftarrow \joinrel  \rhook $}}{}{}Graph}{10}{subsubsection.3.6.2.1}}
\newlabel{classparallel_programierrung_1_1_generated_graph_afb1cac010b4e0bc9c6c8501ea0742572}{{3.6.2.1}{10}{Generated\+Graph}{subsubsection.3.6.2.1}{}}
\gdef \PWST@v{2}
\gdef \PWST@vi{1}
\gdef \PWST@vii{1}
\gdef \PWST@viii{1}
\@writefile{toc}{\contentsline {subsection}{\numberline {3.6.3}Member Function Documentation}{11}{subsection.3.6.3}}
\@writefile{toc}{\contentsline {subsubsection}{\numberline {3.6.3.1}add\discretionary {\unhbox \voidb@x \hbox {\relax \fontsize  {7}{8}\selectfont  $\leftarrow \joinrel  \rhook $}}{}{}Listener}{11}{subsubsection.3.6.3.1}}
\newlabel{classparallel_programierrung_1_1_generated_graph_a7d24c968300ef42595f87dfe5115f4a4}{{3.6.3.1}{11}{add\+Listener}{subsubsection.3.6.3.1}{}}
\@writefile{toc}{\contentsline {subsubsection}{\numberline {3.6.3.2}Get\discretionary {\unhbox \voidb@x \hbox {\relax \fontsize  {7}{8}\selectfont  $\leftarrow \joinrel  \rhook $}}{}{}In\discretionary {\unhbox \voidb@x \hbox {\relax \fontsize  {7}{8}\selectfont  $\leftarrow \joinrel  \rhook $}}{}{}Result\discretionary {\unhbox \voidb@x \hbox {\relax \fontsize  {7}{8}\selectfont  $\leftarrow \joinrel  \rhook $}}{}{}Channel}{11}{subsubsection.3.6.3.2}}
\newlabel{classparallel_programierrung_1_1_generated_graph_adba9cfda25b78dbe7bf6ff6169ce9aa3}{{3.6.3.2}{11}{Get\+In\+Result\+Channel}{subsubsection.3.6.3.2}{}}
\@writefile{toc}{\contentsline {subsubsection}{\numberline {3.6.3.3}get\discretionary {\unhbox \voidb@x \hbox {\relax \fontsize  {7}{8}\selectfont  $\leftarrow \joinrel  \rhook $}}{}{}Thread}{11}{subsubsection.3.6.3.3}}
\newlabel{classparallel_programierrung_1_1_generated_graph_ae24c386f900e7089bea08b713235db34}{{3.6.3.3}{11}{get\+Thread}{subsubsection.3.6.3.3}{}}
\@writefile{toc}{\contentsline {subsubsection}{\numberline {3.6.3.4}remove\discretionary {\unhbox \voidb@x \hbox {\relax \fontsize  {7}{8}\selectfont  $\leftarrow \joinrel  \rhook $}}{}{}Listener}{11}{subsubsection.3.6.3.4}}
\newlabel{classparallel_programierrung_1_1_generated_graph_a35ca7bb777d2deffda7d4389e8c63390}{{3.6.3.4}{11}{remove\+Listener}{subsubsection.3.6.3.4}{}}
\@writefile{toc}{\contentsline {subsubsection}{\numberline {3.6.3.5}run}{11}{subsubsection.3.6.3.5}}
\newlabel{classparallel_programierrung_1_1_generated_graph_ae1a5f7e593e6119ebae30709061fd5c7}{{3.6.3.5}{11}{run}{subsubsection.3.6.3.5}{}}
\@writefile{toc}{\contentsline {subsubsection}{\numberline {3.6.3.6}set\discretionary {\unhbox \voidb@x \hbox {\relax \fontsize  {7}{8}\selectfont  $\leftarrow \joinrel  \rhook $}}{}{}Thread}{11}{subsubsection.3.6.3.6}}
\newlabel{classparallel_programierrung_1_1_generated_graph_a0e478fec64180f9000fc6dc6faf457f2}{{3.6.3.6}{11}{set\+Thread}{subsubsection.3.6.3.6}{}}
\gdef \PWST@ix{2}
\gdef \PWST@x{1}
\@writefile{toc}{\contentsline {subsubsection}{\numberline {3.6.3.7}Start}{12}{subsubsection.3.6.3.7}}
\newlabel{classparallel_programierrung_1_1_generated_graph_a517948c0c210ba5c0029893385ad4768}{{3.6.3.7}{12}{Start}{subsubsection.3.6.3.7}{}}
\@writefile{toc}{\contentsline {subsubsection}{\numberline {3.6.3.8}Stop}{12}{subsubsection.3.6.3.8}}
\newlabel{classparallel_programierrung_1_1_generated_graph_a4cb337cc9a8ad43b617a6a6d87b970d8}{{3.6.3.8}{12}{Stop}{subsubsection.3.6.3.8}{}}
\@writefile{toc}{\contentsline {section}{\numberline {3.7}parallel\discretionary {\unhbox \voidb@x \hbox {\relax \fontsize  {7}{8}\selectfont  $\leftarrow \joinrel  \rhook $}}{}{}Programierrung.\discretionary {\unhbox \voidb@x \hbox {\relax \fontsize  {7}{8}\selectfont  $\leftarrow \joinrel  \rhook $}}{}{}Graphen Class Reference}{12}{section.3.7}}
\newlabel{classparallel_programierrung_1_1_graphen}{{3.7}{12}{parallel\+Programierrung.\+Graphen Class Reference}{section.3.7}{}}
\@writefile{toc}{\contentsline {subsection}{\numberline {3.7.1}Detailed Description}{12}{subsection.3.7.1}}
\@writefile{toc}{\contentsline {subsection}{\numberline {3.7.2}Member Function Documentation}{13}{subsection.3.7.2}}
\@writefile{toc}{\contentsline {subsubsection}{\numberline {3.7.2.1}get\discretionary {\unhbox \voidb@x \hbox {\relax \fontsize  {7}{8}\selectfont  $\leftarrow \joinrel  \rhook $}}{}{}Knoten}{13}{subsubsection.3.7.2.1}}
\newlabel{classparallel_programierrung_1_1_graphen_ade642c9be6ade586a0f16dc181437060}{{3.7.2.1}{13}{get\+Knoten}{subsubsection.3.7.2.1}{}}
\@writefile{toc}{\contentsline {subsubsection}{\numberline {3.7.2.2}to\discretionary {\unhbox \voidb@x \hbox {\relax \fontsize  {7}{8}\selectfont  $\leftarrow \joinrel  \rhook $}}{}{}String}{13}{subsubsection.3.7.2.2}}
\newlabel{classparallel_programierrung_1_1_graphen_acabb06c5f1fe410270fe99a488425ef7}{{3.7.2.2}{13}{to\+String}{subsubsection.3.7.2.2}{}}
\@writefile{toc}{\contentsline {subsection}{\numberline {3.7.3}Member Data Documentation}{13}{subsection.3.7.3}}
\@writefile{toc}{\contentsline {subsubsection}{\numberline {3.7.3.1}knoten}{13}{subsubsection.3.7.3.1}}
\newlabel{classparallel_programierrung_1_1_graphen_adabc2ad389155d0d7ba094dd709674ca}{{3.7.3.1}{13}{knoten}{subsubsection.3.7.3.1}{}}
\@writefile{toc}{\contentsline {section}{\numberline {3.8}parallel\discretionary {\unhbox \voidb@x \hbox {\relax \fontsize  {7}{8}\selectfont  $\leftarrow \joinrel  \rhook $}}{}{}Programierrung.\discretionary {\unhbox \voidb@x \hbox {\relax \fontsize  {7}{8}\selectfont  $\leftarrow \joinrel  \rhook $}}{}{}Helper Class Reference}{13}{section.3.8}}
\newlabel{classparallel_programierrung_1_1_helper}{{3.8}{13}{parallel\+Programierrung.\+Helper Class Reference}{section.3.8}{}}
\gdef \PWST@xi{1}
\gdef \PWST@xii{1}
\@writefile{toc}{\contentsline {subsection}{\numberline {3.8.1}Detailed Description}{14}{subsection.3.8.1}}
\@writefile{toc}{\contentsline {subsection}{\numberline {3.8.2}Member Function Documentation}{14}{subsection.3.8.2}}
\@writefile{toc}{\contentsline {subsubsection}{\numberline {3.8.2.1}get\discretionary {\unhbox \voidb@x \hbox {\relax \fontsize  {7}{8}\selectfont  $\leftarrow \joinrel  \rhook $}}{}{}Graphen}{14}{subsubsection.3.8.2.1}}
\newlabel{classparallel_programierrung_1_1_helper_a6c3ad6ba0980d5ac2123bf883cebd6c1}{{3.8.2.1}{14}{get\+Graphen}{subsubsection.3.8.2.1}{}}
\@writefile{toc}{\contentsline {subsubsection}{\numberline {3.8.2.2}Save\discretionary {\unhbox \voidb@x \hbox {\relax \fontsize  {7}{8}\selectfont  $\leftarrow \joinrel  \rhook $}}{}{}Graphen}{14}{subsubsection.3.8.2.2}}
\newlabel{classparallel_programierrung_1_1_helper_acfe3460eaa2a45c76d35a46369455321}{{3.8.2.2}{14}{Save\+Graphen}{subsubsection.3.8.2.2}{}}
\@writefile{toc}{\contentsline {section}{\numberline {3.9}parallel\discretionary {\unhbox \voidb@x \hbox {\relax \fontsize  {7}{8}\selectfont  $\leftarrow \joinrel  \rhook $}}{}{}Programierrung.\discretionary {\unhbox \voidb@x \hbox {\relax \fontsize  {7}{8}\selectfont  $\leftarrow \joinrel  \rhook $}}{}{}I\discretionary {\unhbox \voidb@x \hbox {\relax \fontsize  {7}{8}\selectfont  $\leftarrow \joinrel  \rhook $}}{}{}Knoten Class Reference}{14}{section.3.9}}
\newlabel{classparallel_programierrung_1_1_i_knoten}{{3.9}{14}{parallel\+Programierrung.\+I\+Knoten Class Reference}{section.3.9}{}}
\gdef \PWST@xiii{1}
\@writefile{toc}{\contentsline {subsection}{\numberline {3.9.1}Detailed Description}{15}{subsection.3.9.1}}
\@writefile{toc}{\contentsline {subsection}{\numberline {3.9.2}Constructor \& Destructor Documentation}{15}{subsection.3.9.2}}
\@writefile{toc}{\contentsline {subsubsection}{\numberline {3.9.2.1}I\discretionary {\unhbox \voidb@x \hbox {\relax \fontsize  {7}{8}\selectfont  $\leftarrow \joinrel  \rhook $}}{}{}Knoten}{15}{subsubsection.3.9.2.1}}
\newlabel{classparallel_programierrung_1_1_i_knoten_ad4fc9187d5c795d9034c252e6d9fd14f}{{3.9.2.1}{15}{I\+Knoten}{subsubsection.3.9.2.1}{}}
\@writefile{toc}{\contentsline {subsection}{\numberline {3.9.3}Member Function Documentation}{15}{subsection.3.9.3}}
\@writefile{toc}{\contentsline {subsubsection}{\numberline {3.9.3.1}add\discretionary {\unhbox \voidb@x \hbox {\relax \fontsize  {7}{8}\selectfont  $\leftarrow \joinrel  \rhook $}}{}{}Kante}{15}{subsubsection.3.9.3.1}}
\newlabel{classparallel_programierrung_1_1_i_knoten_a38b50e7ab7dcd1dc5c7fa2310ab196fd}{{3.9.3.1}{15}{add\+Kante}{subsubsection.3.9.3.1}{}}
\gdef \PWST@xiv{2}
\gdef \PWST@xv{1}
\@writefile{toc}{\contentsline {subsubsection}{\numberline {3.9.3.2}add\discretionary {\unhbox \voidb@x \hbox {\relax \fontsize  {7}{8}\selectfont  $\leftarrow \joinrel  \rhook $}}{}{}Kante}{16}{subsubsection.3.9.3.2}}
\newlabel{classparallel_programierrung_1_1_i_knoten_ad3d5392dd196286bb07fdc933edd8c0a}{{3.9.3.2}{16}{add\+Kante}{subsubsection.3.9.3.2}{}}
\@writefile{toc}{\contentsline {subsubsection}{\numberline {3.9.3.3}destroy\discretionary {\unhbox \voidb@x \hbox {\relax \fontsize  {7}{8}\selectfont  $\leftarrow \joinrel  \rhook $}}{}{}Channels}{16}{subsubsection.3.9.3.3}}
\newlabel{classparallel_programierrung_1_1_i_knoten_a0b15e69783aba0f946a667d7dbc57e99}{{3.9.3.3}{16}{destroy\+Channels}{subsubsection.3.9.3.3}{}}
\@writefile{toc}{\contentsline {subsubsection}{\numberline {3.9.3.4}getcontrolling\discretionary {\unhbox \voidb@x \hbox {\relax \fontsize  {7}{8}\selectfont  $\leftarrow \joinrel  \rhook $}}{}{}Channel}{16}{subsubsection.3.9.3.4}}
\newlabel{classparallel_programierrung_1_1_i_knoten_af669d803494df563d985440041f5015c}{{3.9.3.4}{16}{getcontrolling\+Channel}{subsubsection.3.9.3.4}{}}
\@writefile{toc}{\contentsline {subsubsection}{\numberline {3.9.3.5}get\discretionary {\unhbox \voidb@x \hbox {\relax \fontsize  {7}{8}\selectfont  $\leftarrow \joinrel  \rhook $}}{}{}Identifier}{16}{subsubsection.3.9.3.5}}
\newlabel{classparallel_programierrung_1_1_i_knoten_ad9857bc0d17ab6b055e4553fae263ce1}{{3.9.3.5}{16}{get\+Identifier}{subsubsection.3.9.3.5}{}}
\@writefile{toc}{\contentsline {subsubsection}{\numberline {3.9.3.6}get\discretionary {\unhbox \voidb@x \hbox {\relax \fontsize  {7}{8}\selectfont  $\leftarrow \joinrel  \rhook $}}{}{}Kanten}{16}{subsubsection.3.9.3.6}}
\newlabel{classparallel_programierrung_1_1_i_knoten_ae8f045934e8edabd1bd50957f0533525}{{3.9.3.6}{16}{get\+Kanten}{subsubsection.3.9.3.6}{}}
\@writefile{toc}{\contentsline {subsubsection}{\numberline {3.9.3.7}get\discretionary {\unhbox \voidb@x \hbox {\relax \fontsize  {7}{8}\selectfont  $\leftarrow \joinrel  \rhook $}}{}{}Kanten\discretionary {\unhbox \voidb@x \hbox {\relax \fontsize  {7}{8}\selectfont  $\leftarrow \joinrel  \rhook $}}{}{}Map}{16}{subsubsection.3.9.3.7}}
\newlabel{classparallel_programierrung_1_1_i_knoten_a18cf16c9b5a5ca49e5ec9b7852e4bf86}{{3.9.3.7}{16}{get\+Kanten\+Map}{subsubsection.3.9.3.7}{}}
\@writefile{toc}{\contentsline {subsubsection}{\numberline {3.9.3.8}get\discretionary {\unhbox \voidb@x \hbox {\relax \fontsize  {7}{8}\selectfont  $\leftarrow \joinrel  \rhook $}}{}{}Message\discretionary {\unhbox \voidb@x \hbox {\relax \fontsize  {7}{8}\selectfont  $\leftarrow \joinrel  \rhook $}}{}{}Time}{16}{subsubsection.3.9.3.8}}
\newlabel{classparallel_programierrung_1_1_i_knoten_a0244134c7e8576836072f9b7d31f99b3}{{3.9.3.8}{16}{get\+Message\+Time}{subsubsection.3.9.3.8}{}}
\gdef \PWST@xvi{1}
\gdef \PWST@xvii{1}
\gdef \PWST@xviii{1}
\@writefile{toc}{\contentsline {subsubsection}{\numberline {3.9.3.9}get\discretionary {\unhbox \voidb@x \hbox {\relax \fontsize  {7}{8}\selectfont  $\leftarrow \joinrel  \rhook $}}{}{}Out\discretionary {\unhbox \voidb@x \hbox {\relax \fontsize  {7}{8}\selectfont  $\leftarrow \joinrel  \rhook $}}{}{}Result\discretionary {\unhbox \voidb@x \hbox {\relax \fontsize  {7}{8}\selectfont  $\leftarrow \joinrel  \rhook $}}{}{}Channel}{17}{subsubsection.3.9.3.9}}
\newlabel{classparallel_programierrung_1_1_i_knoten_aefc37cae1726bd022662f825dfb80828}{{3.9.3.9}{17}{get\+Out\+Result\+Channel}{subsubsection.3.9.3.9}{}}
\@writefile{toc}{\contentsline {subsubsection}{\numberline {3.9.3.10}get\discretionary {\unhbox \voidb@x \hbox {\relax \fontsize  {7}{8}\selectfont  $\leftarrow \joinrel  \rhook $}}{}{}Start\discretionary {\unhbox \voidb@x \hbox {\relax \fontsize  {7}{8}\selectfont  $\leftarrow \joinrel  \rhook $}}{}{}Node}{17}{subsubsection.3.9.3.10}}
\newlabel{classparallel_programierrung_1_1_i_knoten_a2ffb677a8ac2e85e1bf0b21a10dff23f}{{3.9.3.10}{17}{get\+Start\+Node}{subsubsection.3.9.3.10}{}}
\@writefile{toc}{\contentsline {subsubsection}{\numberline {3.9.3.11}get\discretionary {\unhbox \voidb@x \hbox {\relax \fontsize  {7}{8}\selectfont  $\leftarrow \joinrel  \rhook $}}{}{}Wait\discretionary {\unhbox \voidb@x \hbox {\relax \fontsize  {7}{8}\selectfont  $\leftarrow \joinrel  \rhook $}}{}{}For\discretionary {\unhbox \voidb@x \hbox {\relax \fontsize  {7}{8}\selectfont  $\leftarrow \joinrel  \rhook $}}{}{}Reset}{17}{subsubsection.3.9.3.11}}
\newlabel{classparallel_programierrung_1_1_i_knoten_a1cd51dd3a07ea7390021260ba44c0b58}{{3.9.3.11}{17}{get\+Wait\+For\+Reset}{subsubsection.3.9.3.11}{}}
\@writefile{toc}{\contentsline {subsubsection}{\numberline {3.9.3.12}Reset\discretionary {\unhbox \voidb@x \hbox {\relax \fontsize  {7}{8}\selectfont  $\leftarrow \joinrel  \rhook $}}{}{}Knoten}{17}{subsubsection.3.9.3.12}}
\newlabel{classparallel_programierrung_1_1_i_knoten_aa098ee4e0f5bb9ece2bbcd53a81a513a}{{3.9.3.12}{17}{Reset\+Knoten}{subsubsection.3.9.3.12}{}}
\@writefile{toc}{\contentsline {subsubsection}{\numberline {3.9.3.13}set\discretionary {\unhbox \voidb@x \hbox {\relax \fontsize  {7}{8}\selectfont  $\leftarrow \joinrel  \rhook $}}{}{}Message\discretionary {\unhbox \voidb@x \hbox {\relax \fontsize  {7}{8}\selectfont  $\leftarrow \joinrel  \rhook $}}{}{}Time}{17}{subsubsection.3.9.3.13}}
\newlabel{classparallel_programierrung_1_1_i_knoten_acc0e7627e13f22a7b05d5d1026ea53de}{{3.9.3.13}{17}{set\+Message\+Time}{subsubsection.3.9.3.13}{}}
\@writefile{toc}{\contentsline {subsubsection}{\numberline {3.9.3.14}set\discretionary {\unhbox \voidb@x \hbox {\relax \fontsize  {7}{8}\selectfont  $\leftarrow \joinrel  \rhook $}}{}{}Out\discretionary {\unhbox \voidb@x \hbox {\relax \fontsize  {7}{8}\selectfont  $\leftarrow \joinrel  \rhook $}}{}{}Result\discretionary {\unhbox \voidb@x \hbox {\relax \fontsize  {7}{8}\selectfont  $\leftarrow \joinrel  \rhook $}}{}{}Channel}{17}{subsubsection.3.9.3.14}}
\newlabel{classparallel_programierrung_1_1_i_knoten_a3bdbc7851a1829b8ceb97c398f9cce74}{{3.9.3.14}{17}{set\+Out\+Result\+Channel}{subsubsection.3.9.3.14}{}}
\@writefile{toc}{\contentsline {subsubsection}{\numberline {3.9.3.15}set\discretionary {\unhbox \voidb@x \hbox {\relax \fontsize  {7}{8}\selectfont  $\leftarrow \joinrel  \rhook $}}{}{}Start\discretionary {\unhbox \voidb@x \hbox {\relax \fontsize  {7}{8}\selectfont  $\leftarrow \joinrel  \rhook $}}{}{}Node}{17}{subsubsection.3.9.3.15}}
\newlabel{classparallel_programierrung_1_1_i_knoten_ac7b99a1ee1de69f2a6424f7d45c08835}{{3.9.3.15}{17}{set\+Start\+Node}{subsubsection.3.9.3.15}{}}
\gdef \PWST@xix{1}
\gdef \PWST@xx{1}
\gdef \PWST@xxi{1}
\@writefile{toc}{\contentsline {subsubsection}{\numberline {3.9.3.16}set\discretionary {\unhbox \voidb@x \hbox {\relax \fontsize  {7}{8}\selectfont  $\leftarrow \joinrel  \rhook $}}{}{}Wait\discretionary {\unhbox \voidb@x \hbox {\relax \fontsize  {7}{8}\selectfont  $\leftarrow \joinrel  \rhook $}}{}{}For\discretionary {\unhbox \voidb@x \hbox {\relax \fontsize  {7}{8}\selectfont  $\leftarrow \joinrel  \rhook $}}{}{}Reset}{18}{subsubsection.3.9.3.16}}
\newlabel{classparallel_programierrung_1_1_i_knoten_a9d51b48c56033cafb577518b6448b883}{{3.9.3.16}{18}{set\+Wait\+For\+Reset}{subsubsection.3.9.3.16}{}}
\@writefile{toc}{\contentsline {subsection}{\numberline {3.9.4}Member Data Documentation}{18}{subsection.3.9.4}}
\@writefile{toc}{\contentsline {subsubsection}{\numberline {3.9.4.1}log}{18}{subsubsection.3.9.4.1}}
\newlabel{classparallel_programierrung_1_1_i_knoten_a484426de616e06fe64588e46d6a3884b}{{3.9.4.1}{18}{log}{subsubsection.3.9.4.1}{}}
\@writefile{toc}{\contentsline {section}{\numberline {3.10}parallel\discretionary {\unhbox \voidb@x \hbox {\relax \fontsize  {7}{8}\selectfont  $\leftarrow \joinrel  \rhook $}}{}{}Programierrung.\discretionary {\unhbox \voidb@x \hbox {\relax \fontsize  {7}{8}\selectfont  $\leftarrow \joinrel  \rhook $}}{}{}Kante Class Reference}{18}{section.3.10}}
\newlabel{classparallel_programierrung_1_1_kante}{{3.10}{18}{parallel\+Programierrung.\+Kante Class Reference}{section.3.10}{}}
\@writefile{toc}{\contentsline {subsection}{\numberline {3.10.1}Detailed Description}{18}{subsection.3.10.1}}
\@writefile{toc}{\contentsline {subsection}{\numberline {3.10.2}Constructor \& Destructor Documentation}{18}{subsection.3.10.2}}
\@writefile{toc}{\contentsline {subsubsection}{\numberline {3.10.2.1}Kante}{18}{subsubsection.3.10.2.1}}
\newlabel{classparallel_programierrung_1_1_kante_aec1bb456abfdaf0ee317bf68285571c2}{{3.10.2.1}{18}{Kante}{subsubsection.3.10.2.1}{}}
\gdef \PWST@xxii{1}
\gdef \PWST@xxiii{1}
\gdef \PWST@xxiv{1}
\@writefile{toc}{\contentsline {subsection}{\numberline {3.10.3}Member Function Documentation}{19}{subsection.3.10.3}}
\@writefile{toc}{\contentsline {subsubsection}{\numberline {3.10.3.1}get\discretionary {\unhbox \voidb@x \hbox {\relax \fontsize  {7}{8}\selectfont  $\leftarrow \joinrel  \rhook $}}{}{}Channel\discretionary {\unhbox \voidb@x \hbox {\relax \fontsize  {7}{8}\selectfont  $\leftarrow \joinrel  \rhook $}}{}{}Input}{19}{subsubsection.3.10.3.1}}
\newlabel{classparallel_programierrung_1_1_kante_ab5135c73f67a053c4fcaf89dff290314}{{3.10.3.1}{19}{get\+Channel\+Input}{subsubsection.3.10.3.1}{}}
\@writefile{toc}{\contentsline {subsubsection}{\numberline {3.10.3.2}get\discretionary {\unhbox \voidb@x \hbox {\relax \fontsize  {7}{8}\selectfont  $\leftarrow \joinrel  \rhook $}}{}{}Channel\discretionary {\unhbox \voidb@x \hbox {\relax \fontsize  {7}{8}\selectfont  $\leftarrow \joinrel  \rhook $}}{}{}Output}{19}{subsubsection.3.10.3.2}}
\newlabel{classparallel_programierrung_1_1_kante_adeddd4a3faaa1e2f4fb9b57a36f88cd2}{{3.10.3.2}{19}{get\+Channel\+Output}{subsubsection.3.10.3.2}{}}
\@writefile{toc}{\contentsline {subsubsection}{\numberline {3.10.3.3}get\discretionary {\unhbox \voidb@x \hbox {\relax \fontsize  {7}{8}\selectfont  $\leftarrow \joinrel  \rhook $}}{}{}Send\discretionary {\unhbox \voidb@x \hbox {\relax \fontsize  {7}{8}\selectfont  $\leftarrow \joinrel  \rhook $}}{}{}First\discretionary {\unhbox \voidb@x \hbox {\relax \fontsize  {7}{8}\selectfont  $\leftarrow \joinrel  \rhook $}}{}{}Message}{19}{subsubsection.3.10.3.3}}
\newlabel{classparallel_programierrung_1_1_kante_ad7612321434a59dcf773ab26f0d6a38e}{{3.10.3.3}{19}{get\+Send\+First\+Message}{subsubsection.3.10.3.3}{}}
\@writefile{toc}{\contentsline {subsubsection}{\numberline {3.10.3.4}set\discretionary {\unhbox \voidb@x \hbox {\relax \fontsize  {7}{8}\selectfont  $\leftarrow \joinrel  \rhook $}}{}{}Channel\discretionary {\unhbox \voidb@x \hbox {\relax \fontsize  {7}{8}\selectfont  $\leftarrow \joinrel  \rhook $}}{}{}Input}{19}{subsubsection.3.10.3.4}}
\newlabel{classparallel_programierrung_1_1_kante_a8038ee82885cc59c70a047711f5379bf}{{3.10.3.4}{19}{set\+Channel\+Input}{subsubsection.3.10.3.4}{}}
\@writefile{toc}{\contentsline {subsubsection}{\numberline {3.10.3.5}set\discretionary {\unhbox \voidb@x \hbox {\relax \fontsize  {7}{8}\selectfont  $\leftarrow \joinrel  \rhook $}}{}{}Channel\discretionary {\unhbox \voidb@x \hbox {\relax \fontsize  {7}{8}\selectfont  $\leftarrow \joinrel  \rhook $}}{}{}Output}{19}{subsubsection.3.10.3.5}}
\newlabel{classparallel_programierrung_1_1_kante_aa7c4a3d70ef8bdf9b2dcb02b5df98446}{{3.10.3.5}{19}{set\+Channel\+Output}{subsubsection.3.10.3.5}{}}
\@writefile{toc}{\contentsline {subsubsection}{\numberline {3.10.3.6}set\discretionary {\unhbox \voidb@x \hbox {\relax \fontsize  {7}{8}\selectfont  $\leftarrow \joinrel  \rhook $}}{}{}Send\discretionary {\unhbox \voidb@x \hbox {\relax \fontsize  {7}{8}\selectfont  $\leftarrow \joinrel  \rhook $}}{}{}First\discretionary {\unhbox \voidb@x \hbox {\relax \fontsize  {7}{8}\selectfont  $\leftarrow \joinrel  \rhook $}}{}{}Message}{19}{subsubsection.3.10.3.6}}
\newlabel{classparallel_programierrung_1_1_kante_a7ecd7163eec44d776ed416cdf632aec3}{{3.10.3.6}{19}{set\+Send\+First\+Message}{subsubsection.3.10.3.6}{}}
\@writefile{toc}{\contentsline {section}{\numberline {3.11}parallel\discretionary {\unhbox \voidb@x \hbox {\relax \fontsize  {7}{8}\selectfont  $\leftarrow \joinrel  \rhook $}}{}{}Programierrung.\discretionary {\unhbox \voidb@x \hbox {\relax \fontsize  {7}{8}\selectfont  $\leftarrow \joinrel  \rhook $}}{}{}Nachricht.\discretionary {\unhbox \voidb@x \hbox {\relax \fontsize  {7}{8}\selectfont  $\leftarrow \joinrel  \rhook $}}{}{}Message\discretionary {\unhbox \voidb@x \hbox {\relax \fontsize  {7}{8}\selectfont  $\leftarrow \joinrel  \rhook $}}{}{}Type Enum Reference}{19}{section.3.11}}
\newlabel{enumparallel_programierrung_1_1_nachricht_1_1_message_type}{{3.11}{19}{parallel\+Programierrung.\+Nachricht.\+Message\+Type Enum Reference}{section.3.11}{}}
\@writefile{toc}{\contentsline {subsection}{\numberline {3.11.1}Detailed Description}{20}{subsection.3.11.1}}
\@writefile{toc}{\contentsline {subsection}{\numberline {3.11.2}Member Data Documentation}{20}{subsection.3.11.2}}
\@writefile{toc}{\contentsline {subsubsection}{\numberline {3.11.2.1}Explorer}{20}{subsubsection.3.11.2.1}}
\newlabel{enumparallel_programierrung_1_1_nachricht_1_1_message_type_a3d367089b152e6b7eb5147afd1881138}{{3.11.2.1}{20}{Explorer}{subsubsection.3.11.2.1}{}}
\@writefile{toc}{\contentsline {subsubsection}{\numberline {3.11.2.2}No\discretionary {\unhbox \voidb@x \hbox {\relax \fontsize  {7}{8}\selectfont  $\leftarrow \joinrel  \rhook $}}{}{}Info}{20}{subsubsection.3.11.2.2}}
\newlabel{enumparallel_programierrung_1_1_nachricht_1_1_message_type_ad0593b93832a6f6c2a5c72ca9578411f}{{3.11.2.2}{20}{No\+Info}{subsubsection.3.11.2.2}{}}
\@writefile{toc}{\contentsline {section}{\numberline {3.12}parallel\discretionary {\unhbox \voidb@x \hbox {\relax \fontsize  {7}{8}\selectfont  $\leftarrow \joinrel  \rhook $}}{}{}Programierrung.\discretionary {\unhbox \voidb@x \hbox {\relax \fontsize  {7}{8}\selectfont  $\leftarrow \joinrel  \rhook $}}{}{}Nachricht Class Reference}{20}{section.3.12}}
\newlabel{classparallel_programierrung_1_1_nachricht}{{3.12}{20}{parallel\+Programierrung.\+Nachricht Class Reference}{section.3.12}{}}
\@writefile{toc}{\contentsline {subsection}{\numberline {3.12.1}Detailed Description}{20}{subsection.3.12.1}}
\@writefile{toc}{\contentsline {subsection}{\numberline {3.12.2}Constructor \& Destructor Documentation}{21}{subsection.3.12.2}}
\@writefile{toc}{\contentsline {subsubsection}{\numberline {3.12.2.1}Nachricht}{21}{subsubsection.3.12.2.1}}
\newlabel{classparallel_programierrung_1_1_nachricht_a5b93ef3863cec1cb744b8a1825dc8532}{{3.12.2.1}{21}{Nachricht}{subsubsection.3.12.2.1}{}}
\gdef \PWST@xxv{1}
\@writefile{toc}{\contentsline {subsection}{\numberline {3.12.3}Member Function Documentation}{22}{subsection.3.12.3}}
\@writefile{toc}{\contentsline {subsubsection}{\numberline {3.12.3.1}get\discretionary {\unhbox \voidb@x \hbox {\relax \fontsize  {7}{8}\selectfont  $\leftarrow \joinrel  \rhook $}}{}{}Election\discretionary {\unhbox \voidb@x \hbox {\relax \fontsize  {7}{8}\selectfont  $\leftarrow \joinrel  \rhook $}}{}{}State}{22}{subsubsection.3.12.3.1}}
\newlabel{classparallel_programierrung_1_1_nachricht_add229b3e9a5f62457d62849dc59dceb7}{{3.12.3.1}{22}{get\+Election\+State}{subsubsection.3.12.3.1}{}}
\@writefile{toc}{\contentsline {subsubsection}{\numberline {3.12.3.2}get\discretionary {\unhbox \voidb@x \hbox {\relax \fontsize  {7}{8}\selectfont  $\leftarrow \joinrel  \rhook $}}{}{}Graph}{22}{subsubsection.3.12.3.2}}
\newlabel{classparallel_programierrung_1_1_nachricht_a304f7e8bc31192c574e2cafea0bc4ce2}{{3.12.3.2}{22}{get\+Graph}{subsubsection.3.12.3.2}{}}
\@writefile{toc}{\contentsline {subsubsection}{\numberline {3.12.3.3}get\discretionary {\unhbox \voidb@x \hbox {\relax \fontsize  {7}{8}\selectfont  $\leftarrow \joinrel  \rhook $}}{}{}I\discretionary {\unhbox \voidb@x \hbox {\relax \fontsize  {7}{8}\selectfont  $\leftarrow \joinrel  \rhook $}}{}{}D\discretionary {\unhbox \voidb@x \hbox {\relax \fontsize  {7}{8}\selectfont  $\leftarrow \joinrel  \rhook $}}{}{}Sender}{22}{subsubsection.3.12.3.3}}
\newlabel{classparallel_programierrung_1_1_nachricht_a5f107e9abbf52831c1306b2a06342d40}{{3.12.3.3}{22}{get\+I\+D\+Sender}{subsubsection.3.12.3.3}{}}
\@writefile{toc}{\contentsline {subsubsection}{\numberline {3.12.3.4}get\discretionary {\unhbox \voidb@x \hbox {\relax \fontsize  {7}{8}\selectfont  $\leftarrow \joinrel  \rhook $}}{}{}Leader}{22}{subsubsection.3.12.3.4}}
\newlabel{classparallel_programierrung_1_1_nachricht_a175b86fcbe5197bd69342da9ad65982a}{{3.12.3.4}{22}{get\+Leader}{subsubsection.3.12.3.4}{}}
\@writefile{toc}{\contentsline {subsubsection}{\numberline {3.12.3.5}get\discretionary {\unhbox \voidb@x \hbox {\relax \fontsize  {7}{8}\selectfont  $\leftarrow \joinrel  \rhook $}}{}{}Master\discretionary {\unhbox \voidb@x \hbox {\relax \fontsize  {7}{8}\selectfont  $\leftarrow \joinrel  \rhook $}}{}{}I\discretionary {\unhbox \voidb@x \hbox {\relax \fontsize  {7}{8}\selectfont  $\leftarrow \joinrel  \rhook $}}{}{}D}{22}{subsubsection.3.12.3.5}}
\newlabel{classparallel_programierrung_1_1_nachricht_af9a34f52b86e8b5cd3695e8bfec0b599}{{3.12.3.5}{22}{get\+Master\+I\+D}{subsubsection.3.12.3.5}{}}
\@writefile{toc}{\contentsline {subsubsection}{\numberline {3.12.3.6}get\discretionary {\unhbox \voidb@x \hbox {\relax \fontsize  {7}{8}\selectfont  $\leftarrow \joinrel  \rhook $}}{}{}Message\discretionary {\unhbox \voidb@x \hbox {\relax \fontsize  {7}{8}\selectfont  $\leftarrow \joinrel  \rhook $}}{}{}Typ}{22}{subsubsection.3.12.3.6}}
\newlabel{classparallel_programierrung_1_1_nachricht_ae654c05cacb7f43e730d504f8437fded}{{3.12.3.6}{22}{get\+Message\+Typ}{subsubsection.3.12.3.6}{}}
\@writefile{toc}{\contentsline {subsubsection}{\numberline {3.12.3.7}set\discretionary {\unhbox \voidb@x \hbox {\relax \fontsize  {7}{8}\selectfont  $\leftarrow \joinrel  \rhook $}}{}{}Election\discretionary {\unhbox \voidb@x \hbox {\relax \fontsize  {7}{8}\selectfont  $\leftarrow \joinrel  \rhook $}}{}{}State}{22}{subsubsection.3.12.3.7}}
\newlabel{classparallel_programierrung_1_1_nachricht_afdec0e3a423673b9f4ba2964f7277434}{{3.12.3.7}{22}{set\+Election\+State}{subsubsection.3.12.3.7}{}}
\gdef \PWST@xxvi{1}
\gdef \PWST@xxvii{1}
\gdef \PWST@xxviii{1}
\@writefile{toc}{\contentsline {subsubsection}{\numberline {3.12.3.8}set\discretionary {\unhbox \voidb@x \hbox {\relax \fontsize  {7}{8}\selectfont  $\leftarrow \joinrel  \rhook $}}{}{}Graph}{23}{subsubsection.3.12.3.8}}
\newlabel{classparallel_programierrung_1_1_nachricht_abea128e6ba4fc5148b3ea0d569490e27}{{3.12.3.8}{23}{set\+Graph}{subsubsection.3.12.3.8}{}}
\@writefile{toc}{\contentsline {subsubsection}{\numberline {3.12.3.9}set\discretionary {\unhbox \voidb@x \hbox {\relax \fontsize  {7}{8}\selectfont  $\leftarrow \joinrel  \rhook $}}{}{}Leader}{23}{subsubsection.3.12.3.9}}
\newlabel{classparallel_programierrung_1_1_nachricht_acccbc913a2ab00d37aab04bd4ffdecee}{{3.12.3.9}{23}{set\+Leader}{subsubsection.3.12.3.9}{}}
\@writefile{toc}{\contentsline {section}{\numberline {3.13}parallel\discretionary {\unhbox \voidb@x \hbox {\relax \fontsize  {7}{8}\selectfont  $\leftarrow \joinrel  \rhook $}}{}{}Programierrung.\discretionary {\unhbox \voidb@x \hbox {\relax \fontsize  {7}{8}\selectfont  $\leftarrow \joinrel  \rhook $}}{}{}Object\discretionary {\unhbox \voidb@x \hbox {\relax \fontsize  {7}{8}\selectfont  $\leftarrow \joinrel  \rhook $}}{}{}Factory Class Reference}{23}{section.3.13}}
\newlabel{classparallel_programierrung_1_1_object_factory}{{3.13}{23}{parallel\+Programierrung.\+Object\+Factory Class Reference}{section.3.13}{}}
\@writefile{toc}{\contentsline {subsection}{\numberline {3.13.1}Detailed Description}{23}{subsection.3.13.1}}
\@writefile{toc}{\contentsline {subsection}{\numberline {3.13.2}Constructor \& Destructor Documentation}{23}{subsection.3.13.2}}
\@writefile{toc}{\contentsline {subsubsection}{\numberline {3.13.2.1}Object\discretionary {\unhbox \voidb@x \hbox {\relax \fontsize  {7}{8}\selectfont  $\leftarrow \joinrel  \rhook $}}{}{}Factory}{23}{subsubsection.3.13.2.1}}
\newlabel{classparallel_programierrung_1_1_object_factory_aac5c83e9745cd34b2fb35337eb577b19}{{3.13.2.1}{23}{Object\+Factory}{subsubsection.3.13.2.1}{}}
\@writefile{toc}{\contentsline {subsection}{\numberline {3.13.3}Member Function Documentation}{23}{subsection.3.13.3}}
\@writefile{toc}{\contentsline {subsubsection}{\numberline {3.13.3.1}create\discretionary {\unhbox \voidb@x \hbox {\relax \fontsize  {7}{8}\selectfont  $\leftarrow \joinrel  \rhook $}}{}{}Graphen}{24}{subsubsection.3.13.3.1}}
\newlabel{classparallel_programierrung_1_1_object_factory_a78e510ab4bca794f367fa8d0399add36}{{3.13.3.1}{24}{create\+Graphen}{subsubsection.3.13.3.1}{}}
\@writefile{toc}{\contentsline {subsubsection}{\numberline {3.13.3.2}create\discretionary {\unhbox \voidb@x \hbox {\relax \fontsize  {7}{8}\selectfont  $\leftarrow \joinrel  \rhook $}}{}{}Graphen\discretionary {\unhbox \voidb@x \hbox {\relax \fontsize  {7}{8}\selectfont  $\leftarrow \joinrel  \rhook $}}{}{}Knoten}{24}{subsubsection.3.13.3.2}}
\newlabel{classparallel_programierrung_1_1_object_factory_a63692a13ce305331d5eba6dd78ab7b96}{{3.13.3.2}{24}{create\+Graphen\+Knoten}{subsubsection.3.13.3.2}{}}
\@writefile{toc}{\contentsline {subsubsection}{\numberline {3.13.3.3}create\discretionary {\unhbox \voidb@x \hbox {\relax \fontsize  {7}{8}\selectfont  $\leftarrow \joinrel  \rhook $}}{}{}Graphen\discretionary {\unhbox \voidb@x \hbox {\relax \fontsize  {7}{8}\selectfont  $\leftarrow \joinrel  \rhook $}}{}{}Knoten\discretionary {\unhbox \voidb@x \hbox {\relax \fontsize  {7}{8}\selectfont  $\leftarrow \joinrel  \rhook $}}{}{}Kante}{24}{subsubsection.3.13.3.3}}
\newlabel{classparallel_programierrung_1_1_object_factory_a6fe8542888cfdeab5717606f59e0bdd4}{{3.13.3.3}{24}{create\+Graphen\+Knoten\+Kante}{subsubsection.3.13.3.3}{}}
\@writefile{toc}{\contentsline {chapter}{Index}{25}{section*.21}}
