\contentsline {chapter}{\numberline {1}Hierarchical Index}{1}{chapter.1}
\contentsline {section}{\numberline {1.1}Class Hierarchy}{1}{section.1.1}
\contentsline {chapter}{\numberline {2}Class Index}{3}{chapter.2}
\contentsline {section}{\numberline {2.1}Class List}{3}{section.2.1}
\contentsline {chapter}{\numberline {3}Class Documentation}{5}{chapter.3}
\contentsline {section}{\numberline {3.1}parallel\discretionary {\unhbox \voidb@x \hbox {\relax \fontsize {7}{8}\selectfont $\leftarrow \joinrel \rhook $}}{}{}Programierrung.\discretionary {\unhbox \voidb@x \hbox {\relax \fontsize {7}{8}\selectfont $\leftarrow \joinrel \rhook $}}{}{}Aufgabe Enum Reference}{5}{section.3.1}
\contentsline {subsection}{\numberline {3.1.1}Detailed Description}{5}{subsection.3.1.1}
\contentsline {subsection}{\numberline {3.1.2}Member Data Documentation}{5}{subsection.3.1.2}
\contentsline {subsubsection}{\numberline {3.1.2.1}echo\discretionary {\unhbox \voidb@x \hbox {\relax \fontsize {7}{8}\selectfont $\leftarrow \joinrel \rhook $}}{}{}Aufgabe1}{5}{subsubsection.3.1.2.1}
\contentsline {subsubsection}{\numberline {3.1.2.2}election\discretionary {\unhbox \voidb@x \hbox {\relax \fontsize {7}{8}\selectfont $\leftarrow \joinrel \rhook $}}{}{}Aufgabe1}{5}{subsubsection.3.1.2.2}
\contentsline {subsubsection}{\numberline {3.1.2.3}election\discretionary {\unhbox \voidb@x \hbox {\relax \fontsize {7}{8}\selectfont $\leftarrow \joinrel \rhook $}}{}{}Aufgabe3}{5}{subsubsection.3.1.2.3}
\contentsline {section}{\numberline {3.2}parallel\discretionary {\unhbox \voidb@x \hbox {\relax \fontsize {7}{8}\selectfont $\leftarrow \joinrel \rhook $}}{}{}Programierrung.\discretionary {\unhbox \voidb@x \hbox {\relax \fontsize {7}{8}\selectfont $\leftarrow \joinrel \rhook $}}{}{}C\discretionary {\unhbox \voidb@x \hbox {\relax \fontsize {7}{8}\selectfont $\leftarrow \joinrel \rhook $}}{}{}N\discretionary {\unhbox \voidb@x \hbox {\relax \fontsize {7}{8}\selectfont $\leftarrow \joinrel \rhook $}}{}{}S\discretionary {\unhbox \voidb@x \hbox {\relax \fontsize {7}{8}\selectfont $\leftarrow \joinrel \rhook $}}{}{}Server Class Reference}{5}{section.3.2}
\contentsline {subsection}{\numberline {3.2.1}Detailed Description}{6}{subsection.3.2.1}
\contentsline {subsection}{\numberline {3.2.2}Constructor \& Destructor Documentation}{6}{subsection.3.2.2}
\contentsline {subsubsection}{\numberline {3.2.2.1}C\discretionary {\unhbox \voidb@x \hbox {\relax \fontsize {7}{8}\selectfont $\leftarrow \joinrel \rhook $}}{}{}N\discretionary {\unhbox \voidb@x \hbox {\relax \fontsize {7}{8}\selectfont $\leftarrow \joinrel \rhook $}}{}{}S\discretionary {\unhbox \voidb@x \hbox {\relax \fontsize {7}{8}\selectfont $\leftarrow \joinrel \rhook $}}{}{}Server}{6}{subsubsection.3.2.2.1}
\contentsline {subsection}{\numberline {3.2.3}Member Function Documentation}{6}{subsection.3.2.3}
\contentsline {subsubsection}{\numberline {3.2.3.1}get\discretionary {\unhbox \voidb@x \hbox {\relax \fontsize {7}{8}\selectfont $\leftarrow \joinrel \rhook $}}{}{}Adress}{6}{subsubsection.3.2.3.1}
\contentsline {subsubsection}{\numberline {3.2.3.2}run}{6}{subsubsection.3.2.3.2}
\contentsline {section}{\numberline {3.3}parallel\discretionary {\unhbox \voidb@x \hbox {\relax \fontsize {7}{8}\selectfont $\leftarrow \joinrel \rhook $}}{}{}Programierrung.\discretionary {\unhbox \voidb@x \hbox {\relax \fontsize {7}{8}\selectfont $\leftarrow \joinrel \rhook $}}{}{}Echo2 Class Reference}{6}{section.3.3}
\contentsline {subsection}{\numberline {3.3.1}Detailed Description}{7}{subsection.3.3.1}
\contentsline {subsection}{\numberline {3.3.2}Constructor \& Destructor Documentation}{7}{subsection.3.3.2}
\contentsline {subsubsection}{\numberline {3.3.2.1}Echo2}{7}{subsubsection.3.3.2.1}
\contentsline {subsection}{\numberline {3.3.3}Member Function Documentation}{7}{subsection.3.3.3}
\contentsline {subsubsection}{\numberline {3.3.3.1}get\discretionary {\unhbox \voidb@x \hbox {\relax \fontsize {7}{8}\selectfont $\leftarrow \joinrel \rhook $}}{}{}State}{7}{subsubsection.3.3.3.1}
\contentsline {subsubsection}{\numberline {3.3.3.2}run}{7}{subsubsection.3.3.3.2}
\contentsline {subsubsection}{\numberline {3.3.3.3}set\discretionary {\unhbox \voidb@x \hbox {\relax \fontsize {7}{8}\selectfont $\leftarrow \joinrel \rhook $}}{}{}State}{7}{subsubsection.3.3.3.3}
\contentsline {subsubsection}{\numberline {3.3.3.4}to\discretionary {\unhbox \voidb@x \hbox {\relax \fontsize {7}{8}\selectfont $\leftarrow \joinrel \rhook $}}{}{}String}{8}{subsubsection.3.3.3.4}
\contentsline {section}{\numberline {3.4}parallel\discretionary {\unhbox \voidb@x \hbox {\relax \fontsize {7}{8}\selectfont $\leftarrow \joinrel \rhook $}}{}{}Programierrung.\discretionary {\unhbox \voidb@x \hbox {\relax \fontsize {7}{8}\selectfont $\leftarrow \joinrel \rhook $}}{}{}Election\discretionary {\unhbox \voidb@x \hbox {\relax \fontsize {7}{8}\selectfont $\leftarrow \joinrel \rhook $}}{}{}Felix Class Reference}{8}{section.3.4}
\contentsline {subsection}{\numberline {3.4.1}Detailed Description}{8}{subsection.3.4.1}
\contentsline {subsection}{\numberline {3.4.2}Constructor \& Destructor Documentation}{8}{subsection.3.4.2}
\contentsline {subsubsection}{\numberline {3.4.2.1}Election\discretionary {\unhbox \voidb@x \hbox {\relax \fontsize {7}{8}\selectfont $\leftarrow \joinrel \rhook $}}{}{}Felix}{8}{subsubsection.3.4.2.1}
\contentsline {subsection}{\numberline {3.4.3}Member Function Documentation}{9}{subsection.3.4.3}
\contentsline {subsubsection}{\numberline {3.4.3.1}get\discretionary {\unhbox \voidb@x \hbox {\relax \fontsize {7}{8}\selectfont $\leftarrow \joinrel \rhook $}}{}{}State}{9}{subsubsection.3.4.3.1}
\contentsline {subsubsection}{\numberline {3.4.3.2}run}{9}{subsubsection.3.4.3.2}
\contentsline {subsubsection}{\numberline {3.4.3.3}set\discretionary {\unhbox \voidb@x \hbox {\relax \fontsize {7}{8}\selectfont $\leftarrow \joinrel \rhook $}}{}{}State}{9}{subsubsection.3.4.3.3}
\contentsline {subsubsection}{\numberline {3.4.3.4}to\discretionary {\unhbox \voidb@x \hbox {\relax \fontsize {7}{8}\selectfont $\leftarrow \joinrel \rhook $}}{}{}String}{9}{subsubsection.3.4.3.4}
\contentsline {section}{\numberline {3.5}parallel\discretionary {\unhbox \voidb@x \hbox {\relax \fontsize {7}{8}\selectfont $\leftarrow \joinrel \rhook $}}{}{}Programierrung.\discretionary {\unhbox \voidb@x \hbox {\relax \fontsize {7}{8}\selectfont $\leftarrow \joinrel \rhook $}}{}{}Election\discretionary {\unhbox \voidb@x \hbox {\relax \fontsize {7}{8}\selectfont $\leftarrow \joinrel \rhook $}}{}{}State Enum Reference}{9}{section.3.5}
\contentsline {subsection}{\numberline {3.5.1}Detailed Description}{9}{subsection.3.5.1}
\contentsline {subsection}{\numberline {3.5.2}Member Data Documentation}{9}{subsection.3.5.2}
\contentsline {subsubsection}{\numberline {3.5.2.1}Election}{9}{subsubsection.3.5.2.1}
\contentsline {subsubsection}{\numberline {3.5.2.2}Graph}{10}{subsubsection.3.5.2.2}
\contentsline {subsubsection}{\numberline {3.5.2.3}Leader}{10}{subsubsection.3.5.2.3}
\contentsline {section}{\numberline {3.6}parallel\discretionary {\unhbox \voidb@x \hbox {\relax \fontsize {7}{8}\selectfont $\leftarrow \joinrel \rhook $}}{}{}Programierrung.\discretionary {\unhbox \voidb@x \hbox {\relax \fontsize {7}{8}\selectfont $\leftarrow \joinrel \rhook $}}{}{}Generated\discretionary {\unhbox \voidb@x \hbox {\relax \fontsize {7}{8}\selectfont $\leftarrow \joinrel \rhook $}}{}{}Graph Class Reference}{10}{section.3.6}
\contentsline {subsection}{\numberline {3.6.1}Detailed Description}{10}{subsection.3.6.1}
\contentsline {subsection}{\numberline {3.6.2}Constructor \& Destructor Documentation}{10}{subsection.3.6.2}
\contentsline {subsubsection}{\numberline {3.6.2.1}Generated\discretionary {\unhbox \voidb@x \hbox {\relax \fontsize {7}{8}\selectfont $\leftarrow \joinrel \rhook $}}{}{}Graph}{10}{subsubsection.3.6.2.1}
\contentsline {subsection}{\numberline {3.6.3}Member Function Documentation}{11}{subsection.3.6.3}
\contentsline {subsubsection}{\numberline {3.6.3.1}add\discretionary {\unhbox \voidb@x \hbox {\relax \fontsize {7}{8}\selectfont $\leftarrow \joinrel \rhook $}}{}{}Listener}{11}{subsubsection.3.6.3.1}
\contentsline {subsubsection}{\numberline {3.6.3.2}Get\discretionary {\unhbox \voidb@x \hbox {\relax \fontsize {7}{8}\selectfont $\leftarrow \joinrel \rhook $}}{}{}In\discretionary {\unhbox \voidb@x \hbox {\relax \fontsize {7}{8}\selectfont $\leftarrow \joinrel \rhook $}}{}{}Result\discretionary {\unhbox \voidb@x \hbox {\relax \fontsize {7}{8}\selectfont $\leftarrow \joinrel \rhook $}}{}{}Channel}{11}{subsubsection.3.6.3.2}
\contentsline {subsubsection}{\numberline {3.6.3.3}get\discretionary {\unhbox \voidb@x \hbox {\relax \fontsize {7}{8}\selectfont $\leftarrow \joinrel \rhook $}}{}{}Thread}{11}{subsubsection.3.6.3.3}
\contentsline {subsubsection}{\numberline {3.6.3.4}remove\discretionary {\unhbox \voidb@x \hbox {\relax \fontsize {7}{8}\selectfont $\leftarrow \joinrel \rhook $}}{}{}Listener}{11}{subsubsection.3.6.3.4}
\contentsline {subsubsection}{\numberline {3.6.3.5}run}{11}{subsubsection.3.6.3.5}
\contentsline {subsubsection}{\numberline {3.6.3.6}set\discretionary {\unhbox \voidb@x \hbox {\relax \fontsize {7}{8}\selectfont $\leftarrow \joinrel \rhook $}}{}{}Thread}{11}{subsubsection.3.6.3.6}
\contentsline {subsubsection}{\numberline {3.6.3.7}Start}{12}{subsubsection.3.6.3.7}
\contentsline {subsubsection}{\numberline {3.6.3.8}Stop}{12}{subsubsection.3.6.3.8}
\contentsline {section}{\numberline {3.7}parallel\discretionary {\unhbox \voidb@x \hbox {\relax \fontsize {7}{8}\selectfont $\leftarrow \joinrel \rhook $}}{}{}Programierrung.\discretionary {\unhbox \voidb@x \hbox {\relax \fontsize {7}{8}\selectfont $\leftarrow \joinrel \rhook $}}{}{}Graphen Class Reference}{12}{section.3.7}
\contentsline {subsection}{\numberline {3.7.1}Detailed Description}{12}{subsection.3.7.1}
\contentsline {subsection}{\numberline {3.7.2}Member Function Documentation}{13}{subsection.3.7.2}
\contentsline {subsubsection}{\numberline {3.7.2.1}get\discretionary {\unhbox \voidb@x \hbox {\relax \fontsize {7}{8}\selectfont $\leftarrow \joinrel \rhook $}}{}{}Knoten}{13}{subsubsection.3.7.2.1}
\contentsline {subsubsection}{\numberline {3.7.2.2}to\discretionary {\unhbox \voidb@x \hbox {\relax \fontsize {7}{8}\selectfont $\leftarrow \joinrel \rhook $}}{}{}String}{13}{subsubsection.3.7.2.2}
\contentsline {subsection}{\numberline {3.7.3}Member Data Documentation}{13}{subsection.3.7.3}
\contentsline {subsubsection}{\numberline {3.7.3.1}knoten}{13}{subsubsection.3.7.3.1}
\contentsline {section}{\numberline {3.8}parallel\discretionary {\unhbox \voidb@x \hbox {\relax \fontsize {7}{8}\selectfont $\leftarrow \joinrel \rhook $}}{}{}Programierrung.\discretionary {\unhbox \voidb@x \hbox {\relax \fontsize {7}{8}\selectfont $\leftarrow \joinrel \rhook $}}{}{}Helper Class Reference}{13}{section.3.8}
\contentsline {subsection}{\numberline {3.8.1}Detailed Description}{14}{subsection.3.8.1}
\contentsline {subsection}{\numberline {3.8.2}Member Function Documentation}{14}{subsection.3.8.2}
\contentsline {subsubsection}{\numberline {3.8.2.1}get\discretionary {\unhbox \voidb@x \hbox {\relax \fontsize {7}{8}\selectfont $\leftarrow \joinrel \rhook $}}{}{}Graphen}{14}{subsubsection.3.8.2.1}
\contentsline {subsubsection}{\numberline {3.8.2.2}Save\discretionary {\unhbox \voidb@x \hbox {\relax \fontsize {7}{8}\selectfont $\leftarrow \joinrel \rhook $}}{}{}Graphen}{14}{subsubsection.3.8.2.2}
\contentsline {section}{\numberline {3.9}parallel\discretionary {\unhbox \voidb@x \hbox {\relax \fontsize {7}{8}\selectfont $\leftarrow \joinrel \rhook $}}{}{}Programierrung.\discretionary {\unhbox \voidb@x \hbox {\relax \fontsize {7}{8}\selectfont $\leftarrow \joinrel \rhook $}}{}{}I\discretionary {\unhbox \voidb@x \hbox {\relax \fontsize {7}{8}\selectfont $\leftarrow \joinrel \rhook $}}{}{}Knoten Class Reference}{14}{section.3.9}
\contentsline {subsection}{\numberline {3.9.1}Detailed Description}{15}{subsection.3.9.1}
\contentsline {subsection}{\numberline {3.9.2}Constructor \& Destructor Documentation}{15}{subsection.3.9.2}
\contentsline {subsubsection}{\numberline {3.9.2.1}I\discretionary {\unhbox \voidb@x \hbox {\relax \fontsize {7}{8}\selectfont $\leftarrow \joinrel \rhook $}}{}{}Knoten}{15}{subsubsection.3.9.2.1}
\contentsline {subsection}{\numberline {3.9.3}Member Function Documentation}{15}{subsection.3.9.3}
\contentsline {subsubsection}{\numberline {3.9.3.1}add\discretionary {\unhbox \voidb@x \hbox {\relax \fontsize {7}{8}\selectfont $\leftarrow \joinrel \rhook $}}{}{}Kante}{15}{subsubsection.3.9.3.1}
\contentsline {subsubsection}{\numberline {3.9.3.2}add\discretionary {\unhbox \voidb@x \hbox {\relax \fontsize {7}{8}\selectfont $\leftarrow \joinrel \rhook $}}{}{}Kante}{16}{subsubsection.3.9.3.2}
\contentsline {subsubsection}{\numberline {3.9.3.3}destroy\discretionary {\unhbox \voidb@x \hbox {\relax \fontsize {7}{8}\selectfont $\leftarrow \joinrel \rhook $}}{}{}Channels}{16}{subsubsection.3.9.3.3}
\contentsline {subsubsection}{\numberline {3.9.3.4}getcontrolling\discretionary {\unhbox \voidb@x \hbox {\relax \fontsize {7}{8}\selectfont $\leftarrow \joinrel \rhook $}}{}{}Channel}{16}{subsubsection.3.9.3.4}
\contentsline {subsubsection}{\numberline {3.9.3.5}get\discretionary {\unhbox \voidb@x \hbox {\relax \fontsize {7}{8}\selectfont $\leftarrow \joinrel \rhook $}}{}{}Identifier}{16}{subsubsection.3.9.3.5}
\contentsline {subsubsection}{\numberline {3.9.3.6}get\discretionary {\unhbox \voidb@x \hbox {\relax \fontsize {7}{8}\selectfont $\leftarrow \joinrel \rhook $}}{}{}Kanten}{16}{subsubsection.3.9.3.6}
\contentsline {subsubsection}{\numberline {3.9.3.7}get\discretionary {\unhbox \voidb@x \hbox {\relax \fontsize {7}{8}\selectfont $\leftarrow \joinrel \rhook $}}{}{}Kanten\discretionary {\unhbox \voidb@x \hbox {\relax \fontsize {7}{8}\selectfont $\leftarrow \joinrel \rhook $}}{}{}Map}{16}{subsubsection.3.9.3.7}
\contentsline {subsubsection}{\numberline {3.9.3.8}get\discretionary {\unhbox \voidb@x \hbox {\relax \fontsize {7}{8}\selectfont $\leftarrow \joinrel \rhook $}}{}{}Message\discretionary {\unhbox \voidb@x \hbox {\relax \fontsize {7}{8}\selectfont $\leftarrow \joinrel \rhook $}}{}{}Time}{16}{subsubsection.3.9.3.8}
\contentsline {subsubsection}{\numberline {3.9.3.9}get\discretionary {\unhbox \voidb@x \hbox {\relax \fontsize {7}{8}\selectfont $\leftarrow \joinrel \rhook $}}{}{}Out\discretionary {\unhbox \voidb@x \hbox {\relax \fontsize {7}{8}\selectfont $\leftarrow \joinrel \rhook $}}{}{}Result\discretionary {\unhbox \voidb@x \hbox {\relax \fontsize {7}{8}\selectfont $\leftarrow \joinrel \rhook $}}{}{}Channel}{17}{subsubsection.3.9.3.9}
\contentsline {subsubsection}{\numberline {3.9.3.10}get\discretionary {\unhbox \voidb@x \hbox {\relax \fontsize {7}{8}\selectfont $\leftarrow \joinrel \rhook $}}{}{}Start\discretionary {\unhbox \voidb@x \hbox {\relax \fontsize {7}{8}\selectfont $\leftarrow \joinrel \rhook $}}{}{}Node}{17}{subsubsection.3.9.3.10}
\contentsline {subsubsection}{\numberline {3.9.3.11}get\discretionary {\unhbox \voidb@x \hbox {\relax \fontsize {7}{8}\selectfont $\leftarrow \joinrel \rhook $}}{}{}Wait\discretionary {\unhbox \voidb@x \hbox {\relax \fontsize {7}{8}\selectfont $\leftarrow \joinrel \rhook $}}{}{}For\discretionary {\unhbox \voidb@x \hbox {\relax \fontsize {7}{8}\selectfont $\leftarrow \joinrel \rhook $}}{}{}Reset}{17}{subsubsection.3.9.3.11}
\contentsline {subsubsection}{\numberline {3.9.3.12}Reset\discretionary {\unhbox \voidb@x \hbox {\relax \fontsize {7}{8}\selectfont $\leftarrow \joinrel \rhook $}}{}{}Knoten}{17}{subsubsection.3.9.3.12}
\contentsline {subsubsection}{\numberline {3.9.3.13}set\discretionary {\unhbox \voidb@x \hbox {\relax \fontsize {7}{8}\selectfont $\leftarrow \joinrel \rhook $}}{}{}Message\discretionary {\unhbox \voidb@x \hbox {\relax \fontsize {7}{8}\selectfont $\leftarrow \joinrel \rhook $}}{}{}Time}{17}{subsubsection.3.9.3.13}
\contentsline {subsubsection}{\numberline {3.9.3.14}set\discretionary {\unhbox \voidb@x \hbox {\relax \fontsize {7}{8}\selectfont $\leftarrow \joinrel \rhook $}}{}{}Out\discretionary {\unhbox \voidb@x \hbox {\relax \fontsize {7}{8}\selectfont $\leftarrow \joinrel \rhook $}}{}{}Result\discretionary {\unhbox \voidb@x \hbox {\relax \fontsize {7}{8}\selectfont $\leftarrow \joinrel \rhook $}}{}{}Channel}{17}{subsubsection.3.9.3.14}
\contentsline {subsubsection}{\numberline {3.9.3.15}set\discretionary {\unhbox \voidb@x \hbox {\relax \fontsize {7}{8}\selectfont $\leftarrow \joinrel \rhook $}}{}{}Start\discretionary {\unhbox \voidb@x \hbox {\relax \fontsize {7}{8}\selectfont $\leftarrow \joinrel \rhook $}}{}{}Node}{17}{subsubsection.3.9.3.15}
\contentsline {subsubsection}{\numberline {3.9.3.16}set\discretionary {\unhbox \voidb@x \hbox {\relax \fontsize {7}{8}\selectfont $\leftarrow \joinrel \rhook $}}{}{}Wait\discretionary {\unhbox \voidb@x \hbox {\relax \fontsize {7}{8}\selectfont $\leftarrow \joinrel \rhook $}}{}{}For\discretionary {\unhbox \voidb@x \hbox {\relax \fontsize {7}{8}\selectfont $\leftarrow \joinrel \rhook $}}{}{}Reset}{18}{subsubsection.3.9.3.16}
\contentsline {subsection}{\numberline {3.9.4}Member Data Documentation}{18}{subsection.3.9.4}
\contentsline {subsubsection}{\numberline {3.9.4.1}log}{18}{subsubsection.3.9.4.1}
\contentsline {section}{\numberline {3.10}parallel\discretionary {\unhbox \voidb@x \hbox {\relax \fontsize {7}{8}\selectfont $\leftarrow \joinrel \rhook $}}{}{}Programierrung.\discretionary {\unhbox \voidb@x \hbox {\relax \fontsize {7}{8}\selectfont $\leftarrow \joinrel \rhook $}}{}{}Kante Class Reference}{18}{section.3.10}
\contentsline {subsection}{\numberline {3.10.1}Detailed Description}{18}{subsection.3.10.1}
\contentsline {subsection}{\numberline {3.10.2}Constructor \& Destructor Documentation}{18}{subsection.3.10.2}
\contentsline {subsubsection}{\numberline {3.10.2.1}Kante}{18}{subsubsection.3.10.2.1}
\contentsline {subsection}{\numberline {3.10.3}Member Function Documentation}{19}{subsection.3.10.3}
\contentsline {subsubsection}{\numberline {3.10.3.1}get\discretionary {\unhbox \voidb@x \hbox {\relax \fontsize {7}{8}\selectfont $\leftarrow \joinrel \rhook $}}{}{}Channel\discretionary {\unhbox \voidb@x \hbox {\relax \fontsize {7}{8}\selectfont $\leftarrow \joinrel \rhook $}}{}{}Input}{19}{subsubsection.3.10.3.1}
\contentsline {subsubsection}{\numberline {3.10.3.2}get\discretionary {\unhbox \voidb@x \hbox {\relax \fontsize {7}{8}\selectfont $\leftarrow \joinrel \rhook $}}{}{}Channel\discretionary {\unhbox \voidb@x \hbox {\relax \fontsize {7}{8}\selectfont $\leftarrow \joinrel \rhook $}}{}{}Output}{19}{subsubsection.3.10.3.2}
\contentsline {subsubsection}{\numberline {3.10.3.3}get\discretionary {\unhbox \voidb@x \hbox {\relax \fontsize {7}{8}\selectfont $\leftarrow \joinrel \rhook $}}{}{}Send\discretionary {\unhbox \voidb@x \hbox {\relax \fontsize {7}{8}\selectfont $\leftarrow \joinrel \rhook $}}{}{}First\discretionary {\unhbox \voidb@x \hbox {\relax \fontsize {7}{8}\selectfont $\leftarrow \joinrel \rhook $}}{}{}Message}{19}{subsubsection.3.10.3.3}
\contentsline {subsubsection}{\numberline {3.10.3.4}set\discretionary {\unhbox \voidb@x \hbox {\relax \fontsize {7}{8}\selectfont $\leftarrow \joinrel \rhook $}}{}{}Channel\discretionary {\unhbox \voidb@x \hbox {\relax \fontsize {7}{8}\selectfont $\leftarrow \joinrel \rhook $}}{}{}Input}{19}{subsubsection.3.10.3.4}
\contentsline {subsubsection}{\numberline {3.10.3.5}set\discretionary {\unhbox \voidb@x \hbox {\relax \fontsize {7}{8}\selectfont $\leftarrow \joinrel \rhook $}}{}{}Channel\discretionary {\unhbox \voidb@x \hbox {\relax \fontsize {7}{8}\selectfont $\leftarrow \joinrel \rhook $}}{}{}Output}{19}{subsubsection.3.10.3.5}
\contentsline {subsubsection}{\numberline {3.10.3.6}set\discretionary {\unhbox \voidb@x \hbox {\relax \fontsize {7}{8}\selectfont $\leftarrow \joinrel \rhook $}}{}{}Send\discretionary {\unhbox \voidb@x \hbox {\relax \fontsize {7}{8}\selectfont $\leftarrow \joinrel \rhook $}}{}{}First\discretionary {\unhbox \voidb@x \hbox {\relax \fontsize {7}{8}\selectfont $\leftarrow \joinrel \rhook $}}{}{}Message}{19}{subsubsection.3.10.3.6}
\contentsline {section}{\numberline {3.11}parallel\discretionary {\unhbox \voidb@x \hbox {\relax \fontsize {7}{8}\selectfont $\leftarrow \joinrel \rhook $}}{}{}Programierrung.\discretionary {\unhbox \voidb@x \hbox {\relax \fontsize {7}{8}\selectfont $\leftarrow \joinrel \rhook $}}{}{}Nachricht.\discretionary {\unhbox \voidb@x \hbox {\relax \fontsize {7}{8}\selectfont $\leftarrow \joinrel \rhook $}}{}{}Message\discretionary {\unhbox \voidb@x \hbox {\relax \fontsize {7}{8}\selectfont $\leftarrow \joinrel \rhook $}}{}{}Type Enum Reference}{19}{section.3.11}
\contentsline {subsection}{\numberline {3.11.1}Detailed Description}{20}{subsection.3.11.1}
\contentsline {subsection}{\numberline {3.11.2}Member Data Documentation}{20}{subsection.3.11.2}
\contentsline {subsubsection}{\numberline {3.11.2.1}Explorer}{20}{subsubsection.3.11.2.1}
\contentsline {subsubsection}{\numberline {3.11.2.2}No\discretionary {\unhbox \voidb@x \hbox {\relax \fontsize {7}{8}\selectfont $\leftarrow \joinrel \rhook $}}{}{}Info}{20}{subsubsection.3.11.2.2}
\contentsline {section}{\numberline {3.12}parallel\discretionary {\unhbox \voidb@x \hbox {\relax \fontsize {7}{8}\selectfont $\leftarrow \joinrel \rhook $}}{}{}Programierrung.\discretionary {\unhbox \voidb@x \hbox {\relax \fontsize {7}{8}\selectfont $\leftarrow \joinrel \rhook $}}{}{}Nachricht Class Reference}{20}{section.3.12}
\contentsline {subsection}{\numberline {3.12.1}Detailed Description}{20}{subsection.3.12.1}
\contentsline {subsection}{\numberline {3.12.2}Constructor \& Destructor Documentation}{21}{subsection.3.12.2}
\contentsline {subsubsection}{\numberline {3.12.2.1}Nachricht}{21}{subsubsection.3.12.2.1}
\contentsline {subsection}{\numberline {3.12.3}Member Function Documentation}{22}{subsection.3.12.3}
\contentsline {subsubsection}{\numberline {3.12.3.1}get\discretionary {\unhbox \voidb@x \hbox {\relax \fontsize {7}{8}\selectfont $\leftarrow \joinrel \rhook $}}{}{}Election\discretionary {\unhbox \voidb@x \hbox {\relax \fontsize {7}{8}\selectfont $\leftarrow \joinrel \rhook $}}{}{}State}{22}{subsubsection.3.12.3.1}
\contentsline {subsubsection}{\numberline {3.12.3.2}get\discretionary {\unhbox \voidb@x \hbox {\relax \fontsize {7}{8}\selectfont $\leftarrow \joinrel \rhook $}}{}{}Graph}{22}{subsubsection.3.12.3.2}
\contentsline {subsubsection}{\numberline {3.12.3.3}get\discretionary {\unhbox \voidb@x \hbox {\relax \fontsize {7}{8}\selectfont $\leftarrow \joinrel \rhook $}}{}{}I\discretionary {\unhbox \voidb@x \hbox {\relax \fontsize {7}{8}\selectfont $\leftarrow \joinrel \rhook $}}{}{}D\discretionary {\unhbox \voidb@x \hbox {\relax \fontsize {7}{8}\selectfont $\leftarrow \joinrel \rhook $}}{}{}Sender}{22}{subsubsection.3.12.3.3}
\contentsline {subsubsection}{\numberline {3.12.3.4}get\discretionary {\unhbox \voidb@x \hbox {\relax \fontsize {7}{8}\selectfont $\leftarrow \joinrel \rhook $}}{}{}Leader}{22}{subsubsection.3.12.3.4}
\contentsline {subsubsection}{\numberline {3.12.3.5}get\discretionary {\unhbox \voidb@x \hbox {\relax \fontsize {7}{8}\selectfont $\leftarrow \joinrel \rhook $}}{}{}Master\discretionary {\unhbox \voidb@x \hbox {\relax \fontsize {7}{8}\selectfont $\leftarrow \joinrel \rhook $}}{}{}I\discretionary {\unhbox \voidb@x \hbox {\relax \fontsize {7}{8}\selectfont $\leftarrow \joinrel \rhook $}}{}{}D}{22}{subsubsection.3.12.3.5}
\contentsline {subsubsection}{\numberline {3.12.3.6}get\discretionary {\unhbox \voidb@x \hbox {\relax \fontsize {7}{8}\selectfont $\leftarrow \joinrel \rhook $}}{}{}Message\discretionary {\unhbox \voidb@x \hbox {\relax \fontsize {7}{8}\selectfont $\leftarrow \joinrel \rhook $}}{}{}Typ}{22}{subsubsection.3.12.3.6}
\contentsline {subsubsection}{\numberline {3.12.3.7}set\discretionary {\unhbox \voidb@x \hbox {\relax \fontsize {7}{8}\selectfont $\leftarrow \joinrel \rhook $}}{}{}Election\discretionary {\unhbox \voidb@x \hbox {\relax \fontsize {7}{8}\selectfont $\leftarrow \joinrel \rhook $}}{}{}State}{22}{subsubsection.3.12.3.7}
\contentsline {subsubsection}{\numberline {3.12.3.8}set\discretionary {\unhbox \voidb@x \hbox {\relax \fontsize {7}{8}\selectfont $\leftarrow \joinrel \rhook $}}{}{}Graph}{23}{subsubsection.3.12.3.8}
\contentsline {subsubsection}{\numberline {3.12.3.9}set\discretionary {\unhbox \voidb@x \hbox {\relax \fontsize {7}{8}\selectfont $\leftarrow \joinrel \rhook $}}{}{}Leader}{23}{subsubsection.3.12.3.9}
\contentsline {section}{\numberline {3.13}parallel\discretionary {\unhbox \voidb@x \hbox {\relax \fontsize {7}{8}\selectfont $\leftarrow \joinrel \rhook $}}{}{}Programierrung.\discretionary {\unhbox \voidb@x \hbox {\relax \fontsize {7}{8}\selectfont $\leftarrow \joinrel \rhook $}}{}{}Object\discretionary {\unhbox \voidb@x \hbox {\relax \fontsize {7}{8}\selectfont $\leftarrow \joinrel \rhook $}}{}{}Factory Class Reference}{23}{section.3.13}
\contentsline {subsection}{\numberline {3.13.1}Detailed Description}{23}{subsection.3.13.1}
\contentsline {subsection}{\numberline {3.13.2}Constructor \& Destructor Documentation}{23}{subsection.3.13.2}
\contentsline {subsubsection}{\numberline {3.13.2.1}Object\discretionary {\unhbox \voidb@x \hbox {\relax \fontsize {7}{8}\selectfont $\leftarrow \joinrel \rhook $}}{}{}Factory}{23}{subsubsection.3.13.2.1}
\contentsline {subsection}{\numberline {3.13.3}Member Function Documentation}{23}{subsection.3.13.3}
\contentsline {subsubsection}{\numberline {3.13.3.1}create\discretionary {\unhbox \voidb@x \hbox {\relax \fontsize {7}{8}\selectfont $\leftarrow \joinrel \rhook $}}{}{}Graphen}{24}{subsubsection.3.13.3.1}
\contentsline {subsubsection}{\numberline {3.13.3.2}create\discretionary {\unhbox \voidb@x \hbox {\relax \fontsize {7}{8}\selectfont $\leftarrow \joinrel \rhook $}}{}{}Graphen\discretionary {\unhbox \voidb@x \hbox {\relax \fontsize {7}{8}\selectfont $\leftarrow \joinrel \rhook $}}{}{}Knoten}{24}{subsubsection.3.13.3.2}
\contentsline {subsubsection}{\numberline {3.13.3.3}create\discretionary {\unhbox \voidb@x \hbox {\relax \fontsize {7}{8}\selectfont $\leftarrow \joinrel \rhook $}}{}{}Graphen\discretionary {\unhbox \voidb@x \hbox {\relax \fontsize {7}{8}\selectfont $\leftarrow \joinrel \rhook $}}{}{}Knoten\discretionary {\unhbox \voidb@x \hbox {\relax \fontsize {7}{8}\selectfont $\leftarrow \joinrel \rhook $}}{}{}Kante}{24}{subsubsection.3.13.3.3}
\contentsline {chapter}{Index}{25}{section*.21}
